{
  "_links": {
    "url":
      "https://broom.moveon.org/api/v1/petitions/georgia-add-outkast-to/signatures.json?per_page=10&page=1",
    "next":
      "https://broom.moveon.org/api/v1/petitions/georgia-add-outkast-to/signatures.json?page=2&per_page=10",
    "previous": null
  },
  "count": 14476,
  "page_size": 10,
  "_embedded": [
    {
      "_links": { "url": "https://petitions.moveon.org/signature/whatever" },
      "created_date": "2018-02-14T20:25:26Z",
      "comments": "",
      "comment_id": null,
      "_embedded": {
        "user": {
          "_links": { "url": "https://petitions.moveon.org/person/" },
          "name": "Sandra",
          "city": "Denver",
          "state": "CO"
        }
      }
    },
    {
      "_links": { "url": "https://petitions.moveon.org/signature/whatever" },
      "created_date": "2018-02-14T16:12:41Z",
      "comments": "",
      "comment_id": null,
      "_embedded": {
        "user": {
          "_links": { "url": "https://petitions.moveon.org/person/" },
          "name": "Sandra",
          "city": "",
          "state": ""
        }
      }
    },
    {
      "_links": { "url": "https://petitions.moveon.org/signature/whatever" },
      "created_date": "2018-02-06T16:29:30Z",
      "comments": "",
      "comment_id": null,
      "_embedded": {
        "user": {
          "_links": { "url": "https://petitions.moveon.org/person/" },
          "name": "Tillie",
          "city": "Washington",
          "state": "DC"
        }
      }
    },
    {
      "_links": { "url": "https://petitions.moveon.org/signature/whatever" },
      "created_date": "2018-02-06T16:29:18Z",
      "comments": "",
      "comment_id": null,
      "_embedded": {
        "user": {
          "_links": { "url": "https://petitions.moveon.org/person/" },
          "name": "Erica Moen",
          "city": "",
          "state": ""
        }
      }
    },
    {
      "_links": { "url": "https://petitions.moveon.org/signature/whatever" },
      "created_date": "2018-02-01T16:07:30Z",
      "comments": "",
      "comment_id": null,
      "_embedded": {
        "user": {
          "_links": { "url": "https://petitions.moveon.org/person/" },
          "name": "Tillie",
          "city": "",
          "state": ""
        }
      }
    },
    {
      "_links": { "url": "https://petitions.moveon.org/signature/whatever" },
      "created_date": "2018-01-30T22:28:18Z",
      "comments": "outkast1305",
      "comment_id": 15580198,
      "_embedded": {
        "user": {
          "_links": { "url": "https://petitions.moveon.org/person/" },
          "name": "Sky Duveen",
          "city": "New York",
          "state": "NY"
        }
      }
    },
    {
      "_links": { "url": "https://petitions.moveon.org/signature/whatever" },
      "created_date": "2018-01-30T22:19:43Z",
      "comments": "1/30 in the pm",
      "comment_id": 15580197,
      "_embedded": {
        "user": {
          "_links": { "url": "https://petitions.moveon.org/person/" },
          "name": "sjan thirtypm",
          "city": "New York",
          "state": "NY"
        }
      }
    },
    {
      "_links": { "url": "https://petitions.moveon.org/signature/whatever" },
      "created_date": "2018-01-30T15:15:05Z",
      "comments": "jan 30th!",
      "comment_id": 15580196,
      "_embedded": {
        "user": {
          "_links": { "url": "https://petitions.moveon.org/person/" },
          "name": "sjan thirty",
          "city": "New York",
          "state": "NY"
        }
      }
    },
    {
      "_links": { "url": "https://petitions.moveon.org/signature/whatever" },
      "created_date": "2018-01-26T23:33:31Z",
      "comments": "hihi",
      "comment_id": 15580195,
      "_embedded": {
        "user": {
          "_links": { "url": "https://petitions.moveon.org/person/" },
          "name": "Schuyler Duveen",
          "city": "Manhattan",
          "state": "NY"
        }
      }
    },
    {
      "_links": { "url": "https://petitions.moveon.org/signature/whatever" },
      "created_date": "2018-01-26T20:49:00Z",
      "comments": "signing and maybe off to ak!",
      "comment_id": 15580194,
      "_embedded": {
        "user": {
          "_links": { "url": "https://petitions.moveon.org/person/" },
          "name": "aktest sky",
          "city": "New York",
          "state": "NY"
        }
      }
    }
  ],
  "total_pages": 1448,
  "page": "1",
  "total_records": 14476
}
